<?xml version="1.0" encoding="UTF-8" ?>
<testsuite tests="26" failures="0" name="be.kdg.distrib.TestSkeletonFactory" time="0.116" errors="0" skipped="0">
  <properties>
    <property name="java.runtime.name" value="OpenJDK Runtime Environment"/>
    <property name="java.vm.version" value="12.0.2+10"/>
    <property name="sun.boot.library.path" value="C:\Program Files\Java\jdk-12.0.2\bin"/>
    <property name="user.country.format" value="BE"/>
    <property name="maven.multiModuleProjectDirectory" value="D:\_-GS-_\Study\2. Karel de Grote\4\Programmeren 3\Opdracht\Examen 20-21\Reflection"/>
    <property name="java.vm.vendor" value="Oracle Corporation"/>
    <property name="java.vendor.url" value="https://java.oracle.com/"/>
    <property name="guice.disable.misplaced.annotation.check" value="true"/>
    <property name="path.separator" value=";"/>
    <property name="java.vm.name" value="OpenJDK 64-Bit Server VM"/>
    <property name="sun.os.patch.level" value=""/>
    <property name="user.script" value=""/>
    <property name="user.country" value="GB"/>
    <property name="sun.java.launcher" value="SUN_STANDARD"/>
    <property name="java.vm.specification.name" value="Java Virtual Machine Specification"/>
    <property name="user.dir" value="D:\_-GS-_\Study\2. Karel de Grote\4\Programmeren 3\Opdracht\Examen 20-21\Reflection"/>
    <property name="java.vm.compressedOopsMode" value="Zero based"/>
    <property name="java.runtime.version" value="12.0.2+10"/>
    <property name="java.awt.graphicsenv" value="sun.awt.Win32GraphicsEnvironment"/>
    <property name="os.arch" value="amd64"/>
    <property name="java.io.tmpdir" value="C:\Users\_-GS-_\AppData\Local\Temp\"/>
    <property name="line.separator" value="
"/>
    <property name="java.vm.specification.vendor" value="Oracle Corporation"/>
    <property name="user.variant" value=""/>
    <property name="os.name" value="Windows 10"/>
    <property name="maven.ext.class.path" value="C:\Program Files\JetBrains\IntelliJ IDEA 2019.2.2\plugins\maven\lib\maven-event-listener.jar"/>
    <property name="classworlds.conf" value="C:\Program Files\JetBrains\IntelliJ IDEA 2019.2.2\plugins\maven\lib\maven3\bin\m2.conf"/>
    <property name="sun.jnu.encoding" value="Cp1252"/>
    <property name="java.library.path" value="C:\Program Files\Java\jdk-12.0.2\bin;C:\WINDOWS\Sun\Java\bin;C:\WINDOWS\system32;C:\WINDOWS;C:\Program Files\Microsoft MPI\Bin\;C:\oraclexe\app\oracle\product\11.2.0\server\bin;C:\Program Files (x86)\Common Files\Oracle\Java\javapath;C:\ProgramData\Oracle\Java\javapath;C:\Program Files (x86)\Intel\iCLS Client\;C:\Program Files\Intel\iCLS Client\;C:\Windows\system32;C:\Windows;C:\Windows\System32\Wbem;C:\Windows\System32\WindowsPowerShell\v1.0\;C:\Program Files (x86)\Intel\Intel(R) Management Engine Components\DAL;C:\Program Files\Intel\Intel(R) Management Engine Components\DAL;C:\Program Files (x86)\Intel\Intel(R) Management Engine Components\IPT;C:\Program Files\Intel\Intel(R) Management Engine Components\IPT;C:\Program Files (x86)\NVIDIA Corporation\PhysX\Common;C:\WINDOWS\system32;C:\WINDOWS;C:\WINDOWS\System32\Wbem;C:\WINDOWS\System32\WindowsPowerShell\v1.0\;C:\Program Files\PuTTY\;C:\Program Files (x86)\Windows Live\Shared;C:\WINDOWS\System32\OpenSSH\;C:\Program Files\Java\jdk1.8.0_144\bin;C:\Users\_-GS-_\AppData\Local\Programs\Python\Python37-32;C:\Program Files\NVIDIA Corporation\NVIDIA NvDLISR;C:\Program Files\nodejs\;C:\WINDOWS\system32;C:\WINDOWS;C:\WINDOWS\System32\Wbem;C:\WINDOWS\System32\WindowsPowerShell\v1.0\;C:\WINDOWS\System32\OpenSSH\;C:\Program Files\Microsoft SQL Server\130\Tools\Binn\;C:\Program Files (x86)\Microsoft SQL Server\140\Tools\Binn\;C:\Program Files\Microsoft SQL Server\140\Tools\Binn\;C:\Program Files (x86)\Microsoft SQL Server\140\DTS\Binn\;C:\Program Files\Microsoft SQL Server\140\DTS\Binn\;C:\Program Files\Microsoft SQL Server\Client SDK\ODBC\130\Tools\Binn\;C:\Program Files\dotnet\;C:\Program Files\Java\jdk-12.0.2\bin;E:\MSSQL server driver\sqljdbc_4.2\enu\jre8\sqljdbc42.jar;C:\Users\_-GS-_\AppData\Local\Programs\Python\Python37-32\Scripts&apos;;D:\Programs\Git\Git\cmd;C:\Program Files\Microsoft SQL Server\Client SDK\ODBC\170\Tools\Binn\;D:\Gradle\gradle-6.7.1-all\gradle-6.7.1\bin;C:\Users\_-GS-_\AppData\Local\Microsoft\WindowsApps;C:\Users\_-GS-_\AppData\Local\GitHubDesktop\bin;C:\Users\_-GS-_\AppData\Local\Microsoft\WindowsApps;C:\Users\_-GS-_\.dotnet\tools;C:\Program Files (x86)\Jar2Exe Wizard\;C:\Program Files\Java\jdk1.8.0_144\bin;C:\Users\_-GS-_\AppData\Roaming\npm;C:\Program Files\JetBrains\IntelliJ IDEA 2019.2.2\bin;;D:\Programs\Microsoft VS Code\bin;D:\Programs\JetBrains Rider 2019.2.2\bin;;D:\_-GS-_\Study\@Programs\gradle-5.6.3\bin;E:\MSSQL server driver\sqljdbc_4.2\enu\jre8\sqljdbc42.jar;C:\Users\_-GS-_\AppData\Local\Programs\Python\Python37-32\Scripts;C:\Users\_-GS-_\AppData\Local\Programs\Python\Python37-32\Lib\site-packages\pip;;."/>
    <property name="maven.conf" value="C:\Program Files\JetBrains\IntelliJ IDEA 2019.2.2\plugins\maven\lib\maven3/conf"/>
    <property name="jdk.debug" value="release"/>
    <property name="java.class.version" value="56.0"/>
    <property name="java.specification.name" value="Java Platform API Specification"/>
    <property name="sun.management.compiler" value="HotSpot 64-Bit Tiered Compilers"/>
    <property name="os.version" value="10.0"/>
    <property name="user.home" value="C:\Users\_-GS-_"/>
    <property name="user.timezone" value="Europe/Amsterdam"/>
    <property name="file.encoding" value="UTF-8"/>
    <property name="java.specification.version" value="12"/>
    <property name="user.name" value="_-GS-_"/>
    <property name="idea.version2019.2.3" value="true"/>
    <property name="java.class.path" value="C:\Program Files\JetBrains\IntelliJ IDEA 2019.2.2\plugins\maven\lib\maven3\boot\plexus-classworlds-2.6.0.jar"/>
    <property name="java.vm.specification.version" value="12"/>
    <property name="sun.arch.data.model" value="64"/>
    <property name="sun.java.command" value="org.codehaus.classworlds.Launcher -Didea.version2019.2.3 install"/>
    <property name="java.home" value="C:\Program Files\Java\jdk-12.0.2"/>
    <property name="user.language" value="en"/>
    <property name="java.specification.vendor" value="Oracle Corporation"/>
    <property name="user.language.format" value="nl"/>
    <property name="awt.toolkit" value="sun.awt.windows.WToolkit"/>
    <property name="java.vm.info" value="mixed mode, sharing"/>
    <property name="java.version" value="12.0.2"/>
    <property name="java.vendor" value="Oracle Corporation"/>
    <property name="maven.home" value="C:\Program Files\JetBrains\IntelliJ IDEA 2019.2.2\plugins\maven\lib\maven3"/>
    <property name="file.separator" value="\"/>
    <property name="java.version.date" value="2019-07-16"/>
    <property name="java.vendor.url.bug" value="https://bugreport.java.com/bugreport/"/>
    <property name="sun.io.unicode.encoding" value="UnicodeLittle"/>
    <property name="sun.cpu.endian" value="little"/>
    <property name="sun.desktop" value="windows"/>
    <property name="sun.cpu.isalist" value="amd64"/>
  </properties>
  <testcase classname="be.kdg.distrib.TestSkeletonFactory" name="testVoidMethod" time="0.036"/>
  <testcase classname="be.kdg.distrib.TestSkeletonFactory" name="testCharReturnValue2" time="0.008"/>
  <testcase classname="be.kdg.distrib.TestSkeletonFactory" name="testMethodWithManyParams" time="0.004"/>
  <testcase classname="be.kdg.distrib.TestSkeletonFactory" name="testEmptyReply" time="0.006"/>
  <testcase classname="be.kdg.distrib.TestSkeletonFactory" name="testMessageWithWrongNumberOfParams" time="0.002"/>
  <testcase classname="be.kdg.distrib.TestSkeletonFactory" name="testMethodWithIntParam" time="0.004"/>
  <testcase classname="be.kdg.distrib.TestSkeletonFactory" name="testBoolReturnValue2" time="0.003"/>
  <testcase classname="be.kdg.distrib.TestSkeletonFactory" name="testObjectReturnValue" time="0.006"/>
  <testcase classname="be.kdg.distrib.TestSkeletonFactory" name="testBoolReturnValue" time="0.003"/>
  <testcase classname="be.kdg.distrib.TestSkeletonFactory" name="testWithEverything" time="0.003"/>
  <testcase classname="be.kdg.distrib.TestSkeletonFactory" name="testCreateSkeletonWithValidAddress" time="0.007"/>
  <testcase classname="be.kdg.distrib.TestSkeletonFactory" name="testIntReturnValue2" time="0"/>
  <testcase classname="be.kdg.distrib.TestSkeletonFactory" name="testMethodWithParam" time="0.001"/>
  <testcase classname="be.kdg.distrib.TestSkeletonFactory" name="testObjectReturnValue2" time="0.004"/>
  <testcase classname="be.kdg.distrib.TestSkeletonFactory" name="testWrongMethodName" time="0.001"/>
  <testcase classname="be.kdg.distrib.TestSkeletonFactory" name="testObjectAsParameter" time="0.003"/>
  <testcase classname="be.kdg.distrib.TestSkeletonFactory" name="testCharReturnValue" time="0.003"/>
  <testcase classname="be.kdg.distrib.TestSkeletonFactory" name="testRunMethodSpawnThread" time="0.003"/>
  <testcase classname="be.kdg.distrib.TestSkeletonFactory" name="testIntReturnValue" time="0.003"/>
  <testcase classname="be.kdg.distrib.TestSkeletonFactory" name="testObjectAsParameter2" time="0.002"/>
  <testcase classname="be.kdg.distrib.TestSkeletonFactory" name="testRunMethodOneRequest" time="0.004"/>
  <testcase classname="be.kdg.distrib.TestSkeletonFactory" name="testRunMethodMultipleRequests" time="0.004"/>
  <testcase classname="be.kdg.distrib.TestSkeletonFactory" name="testReturnValue2" time="0.002"/>
  <testcase classname="be.kdg.distrib.TestSkeletonFactory" name="testMessageWithWrongParamName" time="0.001"/>
  <testcase classname="be.kdg.distrib.TestSkeletonFactory" name="testMessageWithWrongParamType" time="0.001"/>
  <testcase classname="be.kdg.distrib.TestSkeletonFactory" name="testReturnValue" time="0.002"/>
</testsuite>